<?xml version="1.0" encoding="utf-8"?>
<!-- Generator: Adobe Illustrator 24.0.0, SVG Export Plug-In . SVG Version: 6.00 Build 0)  -->
<svg version="1.1" id="Capa_1" xmlns="http://www.w3.org/2000/svg" xmlns:xlink="http://www.w3.org/1999/xlink" x="0px" y="0px"
	 viewBox="0 0 441.3 389" style="enable-background:new 0 0 441.3 389;" xml:space="preserve">
<style type="text/css">
	.st0{fill:#EA576B;}
</style>
<path class="st0" d="M323.9,0c-23.6-0.1-46.6,7.8-65.2,22.2c-15.5,12.6-28.4,28.3-37.7,46c-9.3-17.7-22.2-33.3-37.7-46
	C164.5,7.6,141.3-0.2,117.4,0C51.5,1.1-1.1,55.5,0,121.5c0,1.7,0.1,3.4,0.2,5.1c0,78.4,62.9,131.9,157.9,212.9l53.5,46
	c5.2,4.6,12.9,4.6,18.1,0l53.5-46.4c95-81,157.9-134.5,157.9-212.9C444.9,60.4,394.6,3.9,328.7,0.2C327.1,0.1,325.5,0,323.9,0z"/>
</svg>
